(footprint "tsi_mpw_chip_another_try" (version 20210126) (generator pcbnew) locked (layer "F.Cu")
  (tedit 602A7107)
  (property "Sheetfile" "MightyPixRun2020_PCB.kicad_sch")
  (property "Sheetname" "")
  (solder_mask_margin -1)
  (solder_paste_ratio -0.5)
  (clearance 0.1)
  (attr exclude_from_pos_files)
  (fp_text reference "REF**" (at -10.9222 -8.5982) (layer "F.SilkS")
    (effects (font (size 1 1) (thickness 0.15)))
    (tstamp d910a208-db81-4ee5-8c9c-a0951ec6401f)
  )
  (fp_text value "MPW_Chip" (at 1.25 -10.5) (layer "F.Fab")
    (effects (font (size 1 1) (thickness 0.15)))
    (tstamp 2649fc01-055d-4835-bcf7-1d1bff9e45f1)
  )
  (fp_text user "61" (at -2.4 -0.7) (layer "Dwgs.User")
    (effects (font (size 0.05 0.05) (thickness 0.001)))
    (tstamp 00a1a0fd-fdbd-4fed-82b9-551e549228d5)
  )
  (fp_text user "77" (at 2.4 -0.4) (layer "Dwgs.User")
    (effects (font (size 0.05 0.05) (thickness 0.001)))
    (tstamp 19255755-4ac2-4d58-b495-dae1a7ce6fc0)
  )
  (fp_text user "24" (at -0.05 2.15 90) (layer "Dwgs.User")
    (effects (font (size 0.05 0.05) (thickness 0.005)))
    (tstamp 2d16e589-8110-4e65-baa1-6ae518cbaa53)
  )
  (fp_text user "78" (at 2.35 1.9) (layer "Dwgs.User")
    (effects (font (size 0.05 0.05) (thickness 0.001)))
    (tstamp 39ee9992-827b-4daa-a328-b5a7bff213c8)
  )
  (fp_text user "1" (at -2.35 2.15 90) (layer "Dwgs.User")
    (effects (font (size 0.05 0.05) (thickness 0.001)))
    (tstamp adc5460e-0926-46b9-92ab-6843195d5fb1)
  )
  (fp_text user "49" (at -2.3 -2.2) (layer "Dwgs.User")
    (effects (font (size 0.05 0.05) (thickness 0.001)))
    (tstamp bba7d40f-0ee5-466e-8a63-b7cfe786a7f5)
  )
  (fp_text user "48" (at 2.35 2.15 90) (layer "Dwgs.User")
    (effects (font (size 0.05 0.05) (thickness 0.001)))
    (tstamp c4d46cb3-0747-4510-9161-82f299e7cb3a)
  )
  (fp_text user "62" (at 2.4 -2.2) (layer "Dwgs.User")
    (effects (font (size 0.05 0.05) (thickness 0.001)))
    (tstamp daef59a0-f00e-4ced-b864-42b89cde01ba)
  )
  (fp_text user "12" (at -1.2664 2.318 unlocked) (layer "User.2")
    (effects (font (size 0.03 0.03) (thickness 0.0075)))
    (tstamp 4c27bc57-17ba-4209-a87e-f14353c7620b)
  )
  (fp_text user "36" (at 1.1336 2.318 unlocked) (layer "User.2")
    (effects (font (size 0.03 0.03) (thickness 0.0075)))
    (tstamp ea13e288-bcc6-4edf-9fc0-380521f4ba8a)
  )
  (fp_poly (pts (xy 4.35 4.4)
    (xy -5.4 4.4)
    (xy -5.4 -4.02)
    (xy 4.35 -4.02)) (layer "B.Mask") (width 0.1) (fill solid) (tstamp 1cadc2fb-f3dd-49a9-a646-b8d51d7d46d3))
  (fp_poly (pts (xy 8.4 8.2)
    (xy -8.4 8.2)
    (xy -8.4 -5.4)
    (xy 8.4 -5.4)) (layer "F.Mask") (width 0.1) (fill solid) (tstamp d8614a89-a3c2-4fe2-8400-8cd82f302901))
  (fp_line (start 0.975 2.385) (end 0.9 2.385) (layer "Dwgs.User") (width 0.01) (tstamp 001afa76-9b17-4899-a2ec-d0e5e5085cf0))
  (fp_line (start 2.4 -0.65) (end 2.4 -0.575) (layer "Dwgs.User") (width 0.01) (tstamp 0106fc44-51fc-4b46-a823-1a25049281f9))
  (fp_line (start 1.275 2.385) (end 1.2 2.385) (layer "Dwgs.User") (width 0.01) (tstamp 029cd67d-0ab1-4812-bcab-7c82d80a9bd1))
  (fp_line (start -1.6 2.245) (end -1.6 2.385) (layer "Dwgs.User") (width 0.01) (tstamp 03776ddd-9c7f-43ba-afb5-26cc6e82b3c6))
  (fp_line (start 0.775 2.385) (end 0.7 2.385) (layer "Dwgs.User") (width 0.01) (tstamp 038d2b8c-2620-4c7e-8c05-677c59627aa4))
  (fp_line (start 0.6 2.245) (end 0.675 2.245) (layer "Dwgs.User") (width 0.01) (tstamp 0406766c-a1e2-4029-bdd0-d04de14e374a))
  (fp_line (start -2.5 -2.45) (end -2.5 2.42) (layer "Dwgs.User") (width 0.01) (tstamp 04b0e64d-1d6b-466f-ae0b-a201432bf8c2))
  (fp_line (start -1.325 2.245) (end -1.325 2.385) (layer "Dwgs.User") (width 0.01) (tstamp 0525b391-cd09-4854-9394-f6e39fbd851b))
  (fp_line (start 2.475 -2.075) (end 2.4 -2.075) (layer "Dwgs.User") (width 0.01) (tstamp 054d4af1-bce5-4b67-a195-baadaf6a2b7f))
  (fp_line (start -1.125 2.385) (end -1.2 2.385) (layer "Dwgs.User") (width 0.01) (tstamp 06512a22-4c4d-4168-b26b-758bcec94f0c))
  (fp_line (start 0 2.245) (end 0 2.385) (layer "Dwgs.User") (width 0.01) (tstamp 06f77b16-fbd3-4fa0-9ce3-158226f55150))
  (fp_line (start 2.475 -1.95) (end 2.475 -1.875) (layer "Dwgs.User") (width 0.01) (tstamp 082e0d82-32b7-47ae-8b1e-3336273d60b1))
  (fp_line (start 2.4 -0.55) (end 2.475 -0.55) (layer "Dwgs.User") (width 0.01) (tstamp 08326e7d-90a4-4d65-bbe0-0a293c44e147))
  (fp_line (start 2.4 -1.85) (end 2.475 -1.85) (layer "Dwgs.User") (width 0.01) (tstamp 08d08c2a-64b3-4f96-b6b5-bdb5f9aa2859))
  (fp_line (start 1.5 2.245) (end 1.575 2.245) (layer "Dwgs.User") (width 0.01) (tstamp 08ebd216-babc-47a2-96b3-a14aa1682d15))
  (fp_line (start 2.3 1.98) (end 2.375 1.98) (layer "Dwgs.User") (width 0.01) (tstamp 0907538b-dd96-4461-b97c-692c41cf96b1))
  (fp_line (start -2.4 -1.65) (end -2.4 -1.575) (layer "Dwgs.User") (width 0.01) (tstamp 09f9fce3-ad40-4193-b8e9-77b3f3de3484))
  (fp_line (start -0.725 2.385) (end -0.8 2.385) (layer "Dwgs.User") (width 0.01) (tstamp 0a3ec440-ff93-420b-8fa5-968acd035da2))
  (fp_line (start 1.175 2.385) (end 1.1 2.385) (layer "Dwgs.User") (width 0.01) (tstamp 0a89f0a1-895c-4fa9-80f5-962fd29929b7))
  (fp_line (start -2.4 2.245) (end -2.325 2.245) (layer "Dwgs.User") (width 0.01) (tstamp 0b265de6-9dde-4f8f-b57b-aafcc9720950))
  (fp_line (start -0.825 2.385) (end -0.9 2.385) (layer "Dwgs.User") (width 0.01) (tstamp 0ba4e358-d0ad-4a8e-ae1a-7d574818b110))
  (fp_line (start 1.575 2.385) (end 1.5 2.385) (layer "Dwgs.User") (width 0.01) (tstamp 0bac561d-f777-4379-b6cd-8a909efa220a))
  (fp_line (start -2.475 -1.15) (end -2.475 -1.075) (layer "Dwgs.User") (width 0.01) (tstamp 0c0fc019-2410-45b8-800e-d7c30c51bd13))
  (fp_line (start 0.275 2.245) (end 0.275 2.385) (layer "Dwgs.User") (width 0.01) (tstamp 0ea83206-5ef4-4d10-a194-c1335d62aeb8))
  (fp_line (start -1.6 2.245) (end -1.525 2.245) (layer "Dwgs.User") (width 0.01) (tstamp 0ff2b4ec-7ac1-4e41-b29b-fa5c97228aa0))
  (fp_line (start -0.4 2.245) (end -0.325 2.245) (layer "Dwgs.User") (width 0.01) (tstamp 127ebc7b-ad04-471c-8bb1-bf4045667f78))
  (fp_line (start -2.475 -0.95) (end -2.475 -0.875) (layer "Dwgs.User") (width 0.01) (tstamp 13138af6-145a-4aa0-bc30-11fa74ec550f))
  (fp_line (start -0.9 2.245) (end -0.825 2.245) (layer "Dwgs.User") (width 0.01) (tstamp 142b87f5-bed0-49cb-b1b6-652cad73aec0))
  (fp_line (start -1.5 2.245) (end -1.5 2.385) (layer "Dwgs.User") (width 0.01) (tstamp 143374b8-4f04-4fdd-ab72-cea11a090d3d))
  (fp_line (start -1.425 2.245) (end -1.425 2.385) (layer "Dwgs.User") (width 0.01) (tstamp 1451754d-d910-470c-84a7-e8760f34c9d7))
  (fp_line (start 1.375 2.385) (end 1.3 2.385) (layer "Dwgs.User") (width 0.01) (tstamp 1540c4b3-b6be-40af-a810-c0419319388f))
  (fp_line (start -2 2.245) (end -1.925 2.245) (layer "Dwgs.User") (width 0.01) (tstamp 1618ce0f-9e8e-44fe-91b7-bffab4f60320))
  (fp_line (start 0.8 2.245) (end 0.8 2.385) (layer "Dwgs.User") (width 0.01) (tstamp 17931761-1b9e-4b89-9da4-f4f65d6f8131))
  (fp_line (start -2.4 -1.85) (end -2.4 -1.775) (layer "Dwgs.User") (width 0.01) (tstamp 17a8a657-a27c-454c-86d9-ceb32b6e123c))
  (fp_line (start 0.5 2.245) (end 0.5 2.385) (layer "Dwgs.User") (width 0.01) (tstamp 189ffd1a-4252-48a9-bb18-142fd7e48dfd))
  (fp_line (start 2.475 -1.15) (end 2.475 -1.075) (layer "Dwgs.User") (width 0.01) (tstamp 18c5abef-cb34-44a8-ab86-fd87e1787108))
  (fp_line (start -0.6 2.245) (end -0.6 2.385) (layer "Dwgs.User") (width 0.01) (tstamp 1a011c41-6c37-4a31-8f7d-4df37b613eea))
  (fp_line (start -2.225 2.245) (end -2.225 2.385) (layer "Dwgs.User") (width 0.01) (tstamp 1ad2ffd3-6b7f-4ab7-be2c-f08831b00bf9))
  (fp_line (start -1.025 2.245) (end -1.025 2.385) (layer "Dwgs.User") (width 0.01) (tstamp 1b577a6c-5772-4faa-ae67-a1a934172a92))
  (fp_line (start 1.775 2.385) (end 1.7 2.385) (layer "Dwgs.User") (width 0.01) (tstamp 1c054521-668e-4175-b1db-03dcf7694ce9))
  (fp_line (start -2.2 2.245) (end -2.2 2.385) (layer "Dwgs.User") (width 0.01) (tstamp 1eb5c303-39ab-449e-9d06-1e47008e2f5d))
  (fp_line (start -1.2 2.245) (end -1.125 2.245) (layer "Dwgs.User") (width 0.01) (tstamp 20783271-c554-41e2-a7d9-82d91b038e96))
  (fp_line (start -2.025 2.385) (end -2.1 2.385) (layer "Dwgs.User") (width 0.01) (tstamp 20f434ea-565b-434a-961f-6c818a555511))
  (fp_line (start -2.4 -1.15) (end -2.4 -1.075) (layer "Dwgs.User") (width 0.01) (tstamp 21b17945-56cc-438c-a871-183c00e25412))
  (fp_line (start 2.275 2.245) (end 2.275 2.385) (layer "Dwgs.User") (width 0.01) (tstamp 21ef0f21-423f-4eae-bd35-ad3e1406dc88))
  (fp_line (start -1.1 2.245) (end -1.1 2.385) (layer "Dwgs.User") (width 0.01) (tstamp 24d28ab4-3b10-4bae-90c5-dca6b5da622a))
  (fp_line (start 2.3 2.245) (end 2.375 2.245) (layer "Dwgs.User") (width 0.01) (tstamp 2513572d-ccc9-4862-9e2c-288fe58e1881))
  (fp_line (start 1.9 2.245) (end 1.975 2.245) (layer "Dwgs.User") (width 0.01) (tstamp 2568b74f-653a-44b9-91ba-aa73ea19ac81))
  (fp_line (start -2.3 2.245) (end -2.225 2.245) (layer "Dwgs.User") (width 0.01) (tstamp 26329014-f83c-4f78-a603-4af78e62f8f5))
  (fp_line (start 1.675 2.245) (end 1.675 2.385) (layer "Dwgs.User") (width 0.01) (tstamp 269cd3b5-33cb-43f0-aef6-099e1c89e7ac))
  (fp_line (start -2.475 -1.15) (end -2.4 -1.15) (layer "Dwgs.User") (width 0.01) (tstamp 26ecef29-6cb4-49fb-b8e6-3208c9141486))
  (fp_line (start -1.925 2.385) (end -2 2.385) (layer "Dwgs.User") (width 0.01) (tstamp 2778a1bd-0342-43d3-9bdc-3e98e24c7f3e))
  (fp_line (start -2.475 -1.95) (end -2.475 -1.875) (layer "Dwgs.User") (width 0.01) (tstamp 27ac8e97-d2e3-4af7-bbfb-069597b5dfdc))
  (fp_line (start -2.4 -1.55) (end -2.4 -1.475) (layer "Dwgs.User") (width 0.01) (tstamp 27c6c9a1-b692-496a-9772-2e648622ac5f))
  (fp_line (start 0.375 2.245) (end 0.375 2.385) (layer "Dwgs.User") (width 0.01) (tstamp 28056405-a2c5-4d82-be57-60c3c7f58ace))
  (fp_line (start 2.3 2.245) (end 2.3 2.385) (layer "Dwgs.User") (width 0.01) (tstamp 2814e932-8189-4abb-9926-0413488ea923))
  (fp_line (start -0.225 2.245) (end -0.225 2.385) (layer "Dwgs.User") (width 0.01) (tstamp 2a227cad-6abd-4c65-93cd-1eef29e90bec))
  (fp_line (start 1.3 2.245) (end 1.3 2.385) (layer "Dwgs.User") (width 0.01) (tstamp 2a2a6245-d7da-4841-8fd2-753e3d6c39b9))
  (fp_line (start -0.7 2.245) (end -0.7 2.385) (layer "Dwgs.User") (width 0.01) (tstamp 2a8b756c-4b38-446b-a68b-d4d102182cc6))
  (fp_line (start 0.475 2.385) (end 0.4 2.385) (layer "Dwgs.User") (width 0.01) (tstamp 2b54f6a9-da8c-4a2b-be7e-4c6e9750c55c))
  (fp_line (start 2.475 -1.275) (end 2.4 -1.275) (layer "Dwgs.User") (width 0.01) (tstamp 2d3588e7-4d9c-42c0-9bb5-63abc741f85b))
  (fp_line (start 2.475 -1.475) (end 2.4 -1.475) (layer "Dwgs.User") (width 0.01) (tstamp 2dffb06b-9425-403c-a2c3-5645b5cedbf9))
  (fp_line (start -0.125 2.385) (end -0.2 2.385) (layer "Dwgs.User") (width 0.01) (tstamp 2fedd1a8-42de-4740-9181-df5579b6c343))
  (fp_line (start -2.4 -1.675) (end -2.475 -1.675) (layer "Dwgs.User") (width 0.01) (tstamp 302b7b44-1991-4e1f-a305-11871b112ed2))
  (fp_line (start 2.1 2.245) (end 2.175 2.245) (layer "Dwgs.User") (width 0.01) (tstamp 305af706-b08c-4a9a-baaa-cd749e0572cd))
  (fp_line (start -2.475 -1.75) (end -2.4 -1.75) (layer "Dwgs.User") (width 0.01) (tstamp 32d9d6aa-0ca8-4a1f-9f35-4cb1002e3ed9))
  (fp_line (start 1.1 2.245) (end 1.175 2.245) (layer "Dwgs.User") (width 0.01) (tstamp 35358baa-2ca0-4a01-9693-f442bc94f5af))
  (fp_line (start -2.4 -1.45) (end -2.4 -1.375) (layer "Dwgs.User") (width 0.01) (tstamp 35705015-7dae-46fe-846c-8236c999c7bb))
  (fp_line (start -0.2 2.245) (end -0.2 2.385) (layer "Dwgs.User") (width 0.01) (tstamp 360445cc-cdf8-44f6-947f-f1cfc4329467))
  (fp_line (start 2.4 -0.65) (end 2.475 -0.65) (layer "Dwgs.User") (width 0.01) (tstamp 3692e353-0fbf-4640-9c8f-0e18394d2f24))
  (fp_line (start -2.475 -1.35) (end -2.475 -1.275) (layer "Dwgs.User") (width 0.01) (tstamp 38a9557f-1a3e-4f6f-828e-1e998afb096f))
  (fp_line (start -2.475 -0.85) (end -2.4 -0.85) (layer "Dwgs.User") (width 0.01) (tstamp 38fd8f05-cbcb-461d-8f26-937748b606fb))
  (fp_line (start -0.1 2.245) (end -0.1 2.385) (layer "Dwgs.User") (width 0.01) (tstamp 3a10ca9a-8380-470c-ad54-64ef30554f12))
  (fp_line (start 2.475 -1.05) (end 2.475 -0.975) (layer "Dwgs.User") (width 0.01) (tstamp 3adc58eb-711c-474a-b1e3-9fe2d2cd68af))
  (fp_line (start 1.2 2.245) (end 1.275 2.245) (layer "Dwgs.User") (width 0.01) (tstamp 3b252d88-e03c-4e6b-81ea-1bdbe5496101))
  (fp_line (start 1.275 2.245) (end 1.275 2.385) (layer "Dwgs.User") (width 0.01) (tstamp 3b43fe41-c11c-4369-80ee-80da860c2d01))
  (fp_line (start -0.025 2.385) (end -0.1 2.385) (layer "Dwgs.User") (width 0.01) (tstamp 3b7c2e05-342a-42e1-8284-b1d89c975180))
  (fp_line (start 2.275 2.385) (end 2.2 2.385) (layer "Dwgs.User") (width 0.01) (tstamp 3c571b36-c0df-44a7-b581-7bcf055f8865))
  (fp_line (start -2.3 2.245) (end -2.3 2.385) (layer "Dwgs.User") (width 0.01) (tstamp 3ca1b0f0-3701-416f-bdd5-c06172dc7a7c))
  (fp_line (start 0.575 2.385) (end 0.5 2.385) (layer "Dwgs.User") (width 0.01) (tstamp 3dc0b37d-35b5-43f3-9c96-c97b884e15f0))
  (fp_line (start 2.475 -1.775) (end 2.4 -1.775) (layer "Dwgs.User") (width 0.01) (tstamp 3fb6e734-cd17-400c-9279-1cad864b1913))
  (fp_line (start 0.1 2.245) (end 0.1 2.385) (layer "Dwgs.User") (width 0.01) (tstamp 4066cec3-8aac-4316-abcd-31200ca5edac))
  (fp_line (start -0.625 2.245) (end -0.625 2.385) (layer "Dwgs.User") (width 0.01) (tstamp 41b5529e-8102-4d16-ad01-bdd2aa81c56d))
  (fp_line (start -1.525 2.385) (end -1.6 2.385) (layer "Dwgs.User") (width 0.01) (tstamp 436cff26-65a2-4194-8545-4e67654a7928))
  (fp_line (start 1.9 2.245) (end 1.9 2.385) (layer "Dwgs.User") (width 0.01) (tstamp 45242b26-5763-4627-8104-8637c66286eb))
  (fp_line (start 1.975 2.245) (end 1.975 2.385) (layer "Dwgs.User") (width 0.01) (tstamp 45588dd8-f78d-4418-b7ca-8f441e864a5c))
  (fp_line (start 2.4 -1.45) (end 2.475 -1.45) (layer "Dwgs.User") (width 0.01) (tstamp 45d253af-9c12-4dac-ab93-e4f3439bc55c))
  (fp_line (start -2.4 -1.075) (end -2.475 -1.075) (layer "Dwgs.User") (width 0.01) (tstamp 462c6b40-fa13-4837-8500-48da23eea3ab))
  (fp_line (start 2.175 2.245) (end 2.175 2.385) (layer "Dwgs.User") (width 0.01) (tstamp 4761b8c2-9a3e-4a5b-b686-e258560fe16f))
  (fp_line (start 2.3 1.98) (end 2.3 2.055) (layer "Dwgs.User") (width 0.01) (tstamp 4a229502-8e98-4963-b671-06d383b23aaf))
  (fp_line (start -1.2 2.245) (end -1.2 2.385) (layer "Dwgs.User") (width 0.01) (tstamp 4a573a2c-c6a6-4c31-9d6c-15929adb254b))
  (fp_line (start -2.475 -1.55) (end -2.4 -1.55) (layer "Dwgs.User") (width 0.01) (tstamp 4ba72ff2-662e-4fd3-9510-2e4a6199c472))
  (fp_line (start -0.925 2.385) (end -1 2.385) (layer "Dwgs.User") (width 0.01) (tstamp 4cd964fc-f5b6-43d9-a22e-0dd6fd4f294d))
  (fp_line (start -0.725 2.245) (end -0.725 2.385) (layer "Dwgs.User") (width 0.01) (tstamp 4d20d766-20e4-4246-afcf-d573a4a24463))
  (fp_line (start 2.475 -1.85) (end 2.475 -1.775) (layer "Dwgs.User") (width 0.01) (tstamp 4dfde3dd-b494-494a-806f-ead603174962))
  (fp_line (start 2.075 2.385) (end 2 2.385) (layer "Dwgs.User") (width 0.01) (tstamp 53ae318c-0e83-4d5b-a9c0-16f16918beae))
  (fp_line (start 2.4 -1.75) (end 2.475 -1.75) (layer "Dwgs.User") (width 0.01) (tstamp 53bc40cb-f014-4928-bf78-e7d65ef87645))
  (fp_line (start 0.3 2.245) (end 0.375 2.245) (layer "Dwgs.User") (width 0.01) (tstamp 53e266cc-611a-45e9-89e1-80c0521ad24b))
  (fp_line (start 1.7 2.245) (end 1.7 2.385) (layer "Dwgs.User") (width 0.01) (tstamp 54d4c41c-878a-4c1f-9b5d-83b98c444f52))
  (fp_line (start 0.6 2.245) (end 0.6 2.385) (layer "Dwgs.User") (width 0.01) (tstamp 55e6aea4-9482-4940-8de1-37238bab4d23))
  (fp_line (start -0.5 2.245) (end -0.425 2.245) (layer "Dwgs.User") (width 0.01) (tstamp 569888de-5f9f-4143-870e-890dbab6c053))
  (fp_line (start -2.1 2.245) (end -2.025 2.245) (layer "Dwgs.User") (width 0.01) (tstamp 56ce8a0e-1b1f-4e5e-9539-98d827bafed8))
  (fp_line (start -0.4 2.245) (end -0.4 2.385) (layer "Dwgs.User") (width 0.01) (tstamp 591f15ad-528b-476a-8718-1f1333c17181))
  (fp_line (start -1.9 2.245) (end -1.825 2.245) (layer "Dwgs.User") (width 0.01) (tstamp 5a184188-70ad-4877-be89-3bf0b39e513b))
  (fp_line (start 2.4 -0.75) (end 2.475 -0.75) (layer "Dwgs.User") (width 0.01) (tstamp 5a226331-1f85-41c8-ae9a-4f7edd5ebf2b))
  (fp_line (start 1.475 2.385) (end 1.4 2.385) (layer "Dwgs.User") (width 0.01) (tstamp 5bcb73bf-219d-4172-83e6-529d67e179da))
  (fp_line (start 2.4 -1.35) (end 2.475 -1.35) (layer "Dwgs.User") (width 0.01) (tstamp 5bda8b2e-1948-4d69-9f9c-10c0e8264397))
  (fp_line (start -1.5 2.245) (end -1.425 2.245) (layer "Dwgs.User") (width 0.01) (tstamp 5c68a542-001b-410c-8c88-0d5cd492797a))
  (fp_line (start -1.4 2.245) (end -1.4 2.385) (layer "Dwgs.User") (width 0.01) (tstamp 5d04b0eb-e944-4b4c-b1ff-8cecef148914))
  (fp_line (start -2.4 -1.35) (end -2.4 -1.275) (layer "Dwgs.User") (width 0.01) (tstamp 5df41c94-0dbf-4525-94bb-aefad74e7344))
  (fp_line (start -0.925 2.245) (end -0.925 2.385) (layer "Dwgs.User") (width 0.01) (tstamp 5ead59f9-a19c-49f5-ac99-2d389a26a46e))
  (fp_line (start 2.475 -0.575) (end 2.4 -0.575) (layer "Dwgs.User") (width 0.01) (tstamp 5f02a2a7-7818-4055-9cf4-d2ca70702b4c))
  (fp_line (start -1.625 2.385) (end -1.7 2.385) (layer "Dwgs.User") (width 0.01) (tstamp 62f93114-8507-4ed3-b9fd-f71993618be0))
  (fp_line (start 2.475 -1.45) (end 2.475 -1.375) (layer "Dwgs.User") (width 0.01) (tstamp 636dcbdc-360b-4cd6-891b-7371185cd4a3))
  (fp_line (start 0.775 2.245) (end 0.775 2.385) (layer "Dwgs.User") (width 0.01) (tstamp 63dde63c-cbf0-4148-a346-0facd0174473))
  (fp_line (start 2.475 -1.575) (end 2.4 -1.575) (layer "Dwgs.User") (width 0.01) (tstamp 65d3deaf-42ff-4e0f-a8d4-99fd47408924))
  (fp_line (start -1.125 2.245) (end -1.125 2.385) (layer "Dwgs.User") (width 0.01) (tstamp 66c3a5f9-f43f-432b-b9bb-a383ea8f1e9a))
  (fp_line (start 2.4 -0.85) (end 2.475 -0.85) (layer "Dwgs.User") (width 0.01) (tstamp 67735008-a69e-4579-965d-c659a173228c))
  (fp_line (start 1.375 2.245) (end 1.375 2.385) (layer "Dwgs.User") (width 0.01) (tstamp 67d27287-4439-405c-b1a5-de0253d57452))
  (fp_line (start -1.8 2.245) (end -1.8 2.385) (layer "Dwgs.User") (width 0.01) (tstamp 68dab407-f70b-43a5-9187-42df146897ee))
  (fp_line (start 2.475 -0.875) (end 2.4 -0.875) (layer "Dwgs.User") (width 0.01) (tstamp 68f5bef7-6087-4cd5-901b-06854224393a))
  (fp_line (start -0.1 2.245) (end -0.025 2.245) (layer "Dwgs.User") (width 0.01) (tstamp 6a5ad1f1-ea26-4ea6-a5d3-f556aa4de216))
  (fp_line (start -2.475 -0.95) (end -2.4 -0.95) (layer "Dwgs.User") (width 0.01) (tstamp 6a87d293-1bd2-45a8-9971-64bf240f4e61))
  (fp_line (start -2.4 -0.95) (end -2.4 -0.875) (layer "Dwgs.User") (width 0.01) (tstamp 6af85970-9523-4e1a-9437-5a27fbbf0d34))
  (fp_line (start -2.475 -1.35) (end -2.4 -1.35) (layer "Dwgs.User") (width 0.01) (tstamp 6b69cd8e-1368-4f62-9e53-b14c3b521a33))
  (fp_line (start 1.475 2.245) (end 1.475 2.385) (layer "Dwgs.User") (width 0.01) (tstamp 6bf2c090-6fcd-4cad-bebe-d0f1173e5f78))
  (fp_line (start 0.075 2.245) (end 0.075 2.385) (layer "Dwgs.User") (width 0.01) (tstamp 6d899770-87a0-41d2-a5c7-1dde8cb34653))
  (fp_line (start 1.2 2.245) (end 1.2 2.385) (layer "Dwgs.User") (width 0.01) (tstamp 6dbba95a-b9bc-49cd-b699-6a0b425318c7))
  (fp_line (start -0.2 2.245) (end -0.125 2.245) (layer "Dwgs.User") (width 0.01) (tstamp 6ddaa997-a62f-47b9-8057-f0d8af9730a0))
  (fp_line (start -1.825 2.385) (end -1.9 2.385) (layer "Dwgs.User") (width 0.01) (tstamp 6ed424fa-3f18-4fea-8108-2baa23cd69e5))
  (fp_line (start -1.8 2.245) (end -1.725 2.245) (layer "Dwgs.User") (width 0.01) (tstamp 6f1ddd6a-911a-4188-9497-fda2d2a0729c))
  (fp_line (start 1.7 2.245) (end 1.775 2.245) (layer "Dwgs.User") (width 0.01) (tstamp 708f5808-e1f3-42f6-a6ee-10918569cf18))
  (fp_line (start 2.4 -1.15) (end 2.4 -1.075) (layer "Dwgs.User") (width 0.01) (tstamp 70dd181e-7f05-4628-8c2a-465d2389069d))
  (fp_line (start 2.475 -1.65) (end 2.475 -1.575) (layer "Dwgs.User") (width 0.01) (tstamp 7103a659-a54e-4eb6-92e3-a2f75ac60a6a))
  (fp_line (start 1.6 2.245) (end 1.675 2.245) (layer "Dwgs.User") (width 0.01) (tstamp 7254c452-1fc4-48cc-8ce5-0d982542eaa8))
  (fp_line (start 2.475 -1.375) (end 2.4 -1.375) (layer "Dwgs.User") (width 0.01) (tstamp 73a93562-a496-4245-9328-d2cfe2980515))
  (fp_line (start 2.4 -1.65) (end 2.4 -1.575) (layer "Dwgs.User") (width 0.01) (tstamp 73ab076b-f963-457c-9304-ee34979f03f3))
  (fp_line (start -2.4 -1.475) (end -2.475 -1.475) (layer "Dwgs.User") (width 0.01) (tstamp 74457342-5473-44af-a50b-d783f73b44f8))
  (fp_line (start 1.5 2.245) (end 1.5 2.385) (layer "Dwgs.User") (width 0.01) (tstamp 75128d4b-0f1d-43fd-9c3a-e3dedd25b7bb))
  (fp_line (start 2.475 -0.55) (end 2.475 -0.475) (layer "Dwgs.User") (width 0.01) (tstamp 765c3722-7744-4201-a315-a408478ce187))
  (fp_line (start -2.025 2.245) (end -2.025 2.385) (layer "Dwgs.User") (width 0.01) (tstamp 76b9d198-7f06-4aaa-b9a9-f6bfe8b4e856))
  (fp_line (start 1.175 2.245) (end 1.175 2.385) (layer "Dwgs.User") (width 0.01) (tstamp 7702ca5f-2919-4dcb-8b04-4fcaed7802be))
  (fp_line (start 2.2 2.245) (end 2.275 2.245) (layer "Dwgs.User") (width 0.01) (tstamp 77ef9dd4-cacc-4b58-adaa-6c614630525d))
  (fp_line (start 2.375 2.385) (end 2.3 2.385) (layer "Dwgs.User") (width 0.01) (tstamp 780fc79b-1590-4421-89a1-6f5950d13b4e))
  (fp_line (start 0.475 2.245) (end 0.475 2.385) (layer "Dwgs.User") (width 0.01) (tstamp 78344b05-6e21-4d98-b4b0-2f734f314092))
  (fp_line (start 2.1 2.245) (end 2.1 2.385) (layer "Dwgs.User") (width 0.01) (tstamp 7a015bea-ba10-4a2d-a583-fe471b8a6a54))
  (fp_line (start -2.2 2.245) (end -2.125 2.245) (layer "Dwgs.User") (width 0.01) (tstamp 7b48ad1d-2f26-4fd5-bd2f-cdd7b7518179))
  (fp_line (start -2.4 -2.175) (end -2.475 -2.175) (layer "Dwgs.User") (width 0.01) (tstamp 7d730545-935c-4f46-9482-66af0635f477))
  (fp_line (start -1.3 2.245) (end -1.225 2.245) (layer "Dwgs.User") (width 0.01) (tstamp 7d956803-d8c8-4859-b1c6-be441fd6dca9))
  (fp_line (start -2.475 -0.85) (end -2.475 -0.775) (layer "Dwgs.User") (width 0.01) (tstamp 7d97e3c5-2456-450c-8009-33ae03265efa))
  (fp_line (start 0.075 2.385) (end 0 2.385) (layer "Dwgs.User") (width 0.01) (tstamp 7def8362-1b0d-427f-b756-1aa289a0594a))
  (fp_line (start -1 2.245) (end -1 2.385) (layer "Dwgs.User") (width 0.01) (tstamp 7f24b78f-7532-4ac3-8896-95b304055625))
  (fp_line (start 1.8 2.245) (end 1.8 2.385) (layer "Dwgs.User") (width 0.01) (tstamp 80ab0f75-fcd0-4cb7-8c1a-f13ca40b3543))
  (fp_line (start 0.375 2.385) (end 0.3 2.385) (layer "Dwgs.User") (width 0.01) (tstamp 819f971b-494c-4985-8651-8307fdc09a34))
  (fp_line (start 0.575 2.245) (end 0.575 2.385) (layer "Dwgs.User") (width 0.01) (tstamp 826ba1bd-2366-4e93-a6d9-d31424e626e0))
  (fp_line (start 2.4 -2.15) (end 2.475 -2.15) (layer "Dwgs.User") (width 0.01) (tstamp 83143d00-cedc-4aa6-832c-f499187ecdc0))
  (fp_line (start 1.875 2.245) (end 1.875 2.385) (layer "Dwgs.User") (width 0.01) (tstamp 83185d8d-b87f-42f7-9ba3-9d6eade000be))
  (fp_line (start 1.575 2.245) (end 1.575 2.385) (layer "Dwgs.User") (width 0.01) (tstamp 833eb17b-8c11-4949-b504-1b0025377606))
  (fp_line (start -2.475 -1.25) (end -2.4 -1.25) (layer "Dwgs.User") (width 0.01) (tstamp 8543afc7-25bc-4f44-9a65-c202ec68176a))
  (fp_line (start 2.475 -2.15) (end 2.475 -2.075) (layer "Dwgs.User") (width 0.01) (tstamp 862c82e0-6310-4fd3-ac3c-c422d4e5c923))
  (fp_line (start -2.475 -1.85) (end -2.4 -1.85) (layer "Dwgs.User") (width 0.01) (tstamp 863b019b-81ce-4d76-a8de-b03f8862f012))
  (fp_line (start 0.9 2.245) (end 0.9 2.385) (layer "Dwgs.User") (width 0.01) (tstamp 863e1297-d2dd-49bd-82a8-ec062e7463d8))
  (fp_line (start 0.175 2.385) (end 0.1 2.385) (layer "Dwgs.User") (width 0.01) (tstamp 871f2dbb-aa2c-437b-ad3a-e8c49fab5212))
  (fp_line (start 0.1 2.245) (end 0.175 2.245) (layer "Dwgs.User") (width 0.01) (tstamp 87894872-e1da-468b-9af9-f4ebaad26e19))
  (fp_line (start -1.425 2.385) (end -1.5 2.385) (layer "Dwgs.User") (width 0.01) (tstamp 8870a928-1245-46ee-88bc-f883afeb3ddf))
  (fp_line (start -0.6 2.245) (end -0.525 2.245) (layer "Dwgs.User") (width 0.01) (tstamp 8875b004-58e9-44b3-9868-3ba3d79c05a9))
  (fp_line (start 2 2.245) (end 2.075 2.245) (layer "Dwgs.User") (width 0.01) (tstamp 88c0e604-bb0d-48b4-a6d3-dd762b763c41))
  (fp_line (start -1 2.245) (end -0.925 2.245) (layer "Dwgs.User") (width 0.01) (tstamp 8bb2b1cd-8981-4f9a-bff8-02a660898a28))
  (fp_line (start -1.9 2.245) (end -1.9 2.385) (layer "Dwgs.User") (width 0.01) (tstamp 8bc3beb6-4982-4a59-9e9f-41f49b7f092e))
  (fp_line (start -0.7 2.245) (end -0.625 2.245) (layer "Dwgs.User") (width 0.01) (tstamp 8c31d3c1-635a-4096-807c-2b883837c108))
  (fp_line (start -1.725 2.245) (end -1.725 2.385) (layer "Dwgs.User") (width 0.01) (tstamp 8daf2050-361d-41c5-a9d9-715bffa2071d))
  (fp_line (start -2.4 -1.575) (end -2.475 -1.575) (layer "Dwgs.User") (width 0.01) (tstamp 8e1e0a80-50b1-4329-bd7b-833a1f441fe0))
  (fp_line (start 2.475 -0.475) (end 2.4 -0.475) (layer "Dwgs.User") (width 0.01) (tstamp 8eb089c4-41d6-4747-a287-85816ab377f0))
  (fp_line (start 2.4 -1.45) (end 2.4 -1.375) (layer "Dwgs.User") (width 0.01) (tstamp 8eddc611-69c3-4108-888e-10840cf469fb))
  (fp_line (start 0 2.245) (end 0.075 2.245) (layer "Dwgs.User") (width 0.01) (tstamp 8ff0eb68-6b88-4000-9ea7-3c83fad030d7))
  (fp_line (start 2.4 -1.65) (end 2.475 -1.65) (layer "Dwgs.User") (width 0.01) (tstamp 90658db1-b1c3-4998-818a-27422be59435))
  (fp_line (start 2.475 -0.65) (end 2.475 -0.575) (layer "Dwgs.User") (width 0.01) (tstamp 91df3b03-259c-4be9-ae69-2d5b5db4c953))
  (fp_line (start -1.025 2.385) (end -1.1 2.385) (layer "Dwgs.User") (width 0.01) (tstamp 938ac55d-bc2a-4617-9b75-896e0e1ae541))
  (fp_line (start -0.5 2.245) (end -0.5 2.385) (layer "Dwgs.User") (width 0.01) (tstamp 944d5e52-52a7-412a-aeec-ccbcac4e3d17))
  (fp_line (start 0.7 2.245) (end 0.775 2.245) (layer "Dwgs.User") (width 0.01) (tstamp 948216d7-e4a1-4d92-baf2-ba64b6391a13))
  (fp_line (start 2.2 2.245) (end 2.2 2.385) (layer "Dwgs.User") (width 0.01) (tstamp 94c8e803-5f4e-4172-b880-13f8c62551eb))
  (fp_line (start -2.475 -1.55) (end -2.475 -1.475) (layer "Dwgs.User") (width 0.01) (tstamp 94edd0bc-98ff-47f8-86c9-c72f7096b186))
  (fp_line (start -2.475 -1.05) (end -2.4 -1.05) (layer "Dwgs.User") (width 0.01) (tstamp 958698fa-8321-4e25-8d31-43569ff4bcfa))
  (fp_line (start -0.025 2.245) (end -0.025 2.385) (layer "Dwgs.User") (width 0.01) (tstamp 95fd2bf5-e563-41ff-b63e-86e14017a716))
  (fp_line (start 0.5 2.245) (end 0.575 2.245) (layer "Dwgs.User") (width 0.01) (tstamp 97b5cf78-b053-4dc3-bc8e-43e5224a66a0))
  (fp_line (start -2.325 2.245) (end -2.325 2.385) (layer "Dwgs.User") (width 0.01) (tstamp 985f3cfb-5e4a-4052-86df-95fa743b3f44))
  (fp_line (start 2.5 2.42) (end -2.5 2.42) (layer "Dwgs.User") (width 0.01) (tstamp 9a1c740c-f37a-43b7-bbc8-cdc7b4a6fdbd))
  (fp_line (start 0.675 2.385) (end 0.6 2.385) (layer "Dwgs.User") (width 0.01) (tstamp 9cfc51dd-d8d2-45a7-96df-5b8bf3b22918))
  (fp_line (start -2.475 -1.45) (end -2.4 -1.45) (layer "Dwgs.User") (width 0.01) (tstamp 9d1a94d4-657f-4321-81d6-3aa14425ca87))
  (fp_line (start 2 2.245) (end 2 2.385) (layer "Dwgs.User") (width 0.01) (tstamp 9d936de6-ec19-4cac-bd9f-899610437b26))
  (fp_line (start 2.475 -0.75) (end 2.475 -0.675) (layer "Dwgs.User") (width 0.01) (tstamp 9da9384e-7e0a-4748-8c71-fd116aebd988))
  (fp_line (start 2.4 -1.05) (end 2.475 -1.05) (layer "Dwgs.User") (width 0.01) (tstamp 9e131d7f-7519-40c2-883b-0fe4edb0dbf8))
  (fp_line (start -2.325 2.385) (end -2.4 2.385) (layer "Dwgs.User") (width 0.01) (tstamp 9ecde2f1-3454-4e7d-b855-5b7d44e4acfb))
  (fp_line (start 2.475 -0.975) (end 2.4 -0.975) (layer "Dwgs.User") (width 0.01) (tstamp 9f7c5201-bac7-454a-be43-369186812e68))
  (fp_line (start 2.375 1.98) (end 2.375 2.055) (layer "Dwgs.User") (width 0.01) (tstamp 9f90f782-ecb7-4bbc-a92c-1f7c5c8f692f))
  (fp_line (start -2.4 -1.25) (end -2.4 -1.175) (layer "Dwgs.User") (width 0.01) (tstamp 9f998843-251b-4ca4-8bda-7478696edfad))
  (fp_line (start 2.475 -0.95) (end 2.475 -0.875) (layer "Dwgs.User") (width 0.01) (tstamp a1bfe029-04e9-4d5c-a125-d89e1989784c))
  (fp_line (start 1.6 2.245) (end 1.6 2.385) (layer "Dwgs.User") (width 0.01) (tstamp a2151af7-f50d-4af4-8d9b-8be6abc2eba5))
  (fp_line (start -2.125 2.245) (end -2.125 2.385) (layer "Dwgs.User") (width 0.01) (tstamp a2a32829-5f75-4ee3-9155-357438df11e4))
  (fp_line (start 2.475 -0.85) (end 2.475 -0.775) (layer "Dwgs.User") (width 0.01) (tstamp a2f3cfa0-9abf-4923-8434-0efe084c8128))
  (fp_line (start -1.225 2.385) (end -1.3 2.385) (layer "Dwgs.User") (width 0.01) (tstamp a486bdaa-bebc-445f-b201-2f2eb68e8a4a))
  (fp_line (start -0.8 2.245) (end -0.8 2.385) (layer "Dwgs.User") (width 0.01) (tstamp a53af3cf-7268-4e05-9ff1-7ed672cd7368))
  (fp_line (start -2.4 -1.875) (end -2.475 -1.875) (layer "Dwgs.User") (width 0.01) (tstamp a644ef1f-abf1-4469-9a47-bbefbd2c25c5))
  (fp_line (start 1.3 2.245) (end 1.375 2.245) (layer "Dwgs.User") (width 0.01) (tstamp a692d7d2-85af-495d-93d2-153430f6b5fa))
  (fp_line (start 0.7 2.245) (end 0.7 2.385) (layer "Dwgs.User") (width 0.01) (tstamp a6c04ce9-bf6c-44b4-a807-e43c48126637))
  (fp_line (start -2.475 -1.65) (end -2.4 -1.65) (layer "Dwgs.User") (width 0.01) (tstamp a6cee5e1-bc9f-4458-ad82-7ccfbfadbe45))
  (fp_line (start -2.475 -1.75) (end -2.475 -1.675) (layer "Dwgs.User") (width 0.01) (tstamp a6d3cd8d-a364-444a-b731-bc232cf3ae05))
  (fp_line (start 0.4 2.245) (end 0.4 2.385) (layer "Dwgs.User") (width 0.01) (tstamp a8fb915c-4bc3-4fd5-8a61-ccae13d9d8a3))
  (fp_line (start -2.5 -2.45) (end 2.5 -2.45) (layer "Dwgs.User") (width 0.01) (tstamp a9b53146-42df-4845-8e77-dda0b4dc9b3f))
  (fp_line (start 2.475 -0.675) (end 2.4 -0.675) (layer "Dwgs.User") (width 0.01) (tstamp aa77bac1-49d5-4246-aeb9-c37ac52401a9))
  (fp_line (start -0.625 2.385) (end -0.7 2.385) (layer "Dwgs.User") (width 0.01) (tstamp ab6d8f9d-62d8-4cd4-a289-087c0bc35140))
  (fp_line (start 2.4 -0.95) (end 2.4 -0.875) (layer "Dwgs.User") (width 0.01) (tstamp ac044047-3f71-4540-b57f-a70d6d099cba))
  (fp_line (start 0.8 2.245) (end 0.875 2.245) (layer "Dwgs.User") (width 0.01) (tstamp acce0337-e95c-4103-b7ea-70b32c717d86))
  (fp_line (start -2 2.245) (end -2 2.385) (layer "Dwgs.User") (width 0.01) (tstamp ae0a0dcd-1ba7-482b-a108-9999d9947e57))
  (fp_line (start -1.7 2.245) (end -1.625 2.245) (layer "Dwgs.User") (width 0.01) (tstamp aefd58b6-a676-455f-878e-d584eb650684))
  (fp_line (start 1.875 2.385) (end 1.8 2.385) (layer "Dwgs.User") (width 0.01) (tstamp b15be9af-0055-45c0-be07-4eee846b371d))
  (fp_line (start -0.225 2.385) (end -0.3 2.385) (layer "Dwgs.User") (width 0.01) (tstamp b1662582-170c-4954-84d0-47979b459d03))
  (fp_line (start 2.4 -0.95) (end 2.475 -0.95) (layer "Dwgs.User") (width 0.01) (tstamp b208afef-add4-4f1b-8109-9474dba1cc38))
  (fp_line (start 1.775 2.245) (end 1.775 2.385) (layer "Dwgs.User") (width 0.01) (tstamp b2ef534c-c41c-472e-9722-5953816b2ebb))
  (fp_line (start 2.4 -2.15) (end 2.4 -2.075) (layer "Dwgs.User") (width 0.01) (tstamp b389f1c1-8935-4503-807d-a152f1f81b13))
  (fp_line (start 2.4 -1.55) (end 2.475 -1.55) (layer "Dwgs.User") (width 0.01) (tstamp b3af04ed-548f-44bf-8877-3022813563d5))
  (fp_line (start -0.525 2.385) (end -0.6 2.385) (layer "Dwgs.User") (width 0.01) (tstamp b5db86ca-e198-4b4a-bbf2-e1f8c7f5f5ae))
  (fp_line (start -0.3 2.245) (end -0.3 2.385) (layer "Dwgs.User") (width 0.01) (tstamp b5e5b1df-ac8f-4c2e-90a4-3787e5dd914c))
  (fp_line (start -2.4 -0.85) (end -2.4 -0.775) (layer "Dwgs.User") (width 0.01) (tstamp b723e488-5479-4c33-b6f0-17f87196c5bf))
  (fp_line (start -2.4 -1.95) (end -2.4 -1.875) (layer "Dwgs.User") (width 0.01) (tstamp b7c1efc3-8f69-436f-8fbc-aee837ca0de4))
  (fp_line (start -1.325 2.385) (end -1.4 2.385) (layer "Dwgs.User") (width 0.01) (tstamp b81236b5-ce64-4b27-8123-ade1d7ac0278))
  (fp_line (start -2.4 -1.775) (end -2.475 -1.775) (layer "Dwgs.User") (width 0.01) (tstamp b8499462-3a5b-40c8-a26c-98f11e74999c))
  (fp_line (start 1.975 2.385) (end 1.9 2.385) (layer "Dwgs.User") (width 0.01) (tstamp b927dfc2-8e09-4d1c-8e5a-6fb3fa1cef23))
  (fp_line (start 1.4 2.245) (end 1.475 2.245) (layer "Dwgs.User") (width 0.01) (tstamp b9a75dae-f097-49b9-83bf-61cb3230da27))
  (fp_line (start -1.925 2.245) (end -1.925 2.385) (layer "Dwgs.User") (width 0.01) (tstamp bb39c4f3-4ba7-4b4e-b22c-155cf199d48a))
  (fp_line (start -1.825 2.245) (end -1.825 2.385) (layer "Dwgs.User") (width 0.01) (tstamp bb4ee49a-9f34-4752-9c5d-25f15da7e287))
  (fp_line (start 2.5 -2.45) (end 2.5 2.42) (layer "Dwgs.User") (width 0.01) (tstamp bbe8b9fe-f62b-4707-aabe-f8b194949d82))
  (fp_line (start -1.225 2.245) (end -1.225 2.385) (layer "Dwgs.User") (width 0.01) (tstamp bc3b067a-d2ef-479e-bbaf-72c0e98c0be1))
  (fp_line (start 1 2.245) (end 1.075 2.245) (layer "Dwgs.User") (width 0.01) (tstamp bd227b71-d8bb-423a-bf28-a831e59bdab0))
  (fp_line (start -0.525 2.245) (end -0.525 2.385) (layer "Dwgs.User") (width 0.01) (tstamp c13d6993-1e52-4de5-b814-9bf27cd4d891))
  (fp_line (start 2.475 -1.55) (end 2.475 -1.475) (layer "Dwgs.User") (width 0.01) (tstamp c1ca95e9-b7b5-47ed-a187-c74ea991a5d6))
  (fp_line (start 0.2 2.245) (end 0.2 2.385) (layer "Dwgs.User") (width 0.01) (tstamp c2881ea3-ded9-41f4-a350-4d8f2ac7af49))
  (fp_line (start -2.475 -2.25) (end -2.475 -2.175) (layer "Dwgs.User") (width 0.01) (tstamp c2bfd5c2-5f1e-41e7-a5a1-2807e3d5bec0))
  (fp_line (start 2.375 2.055) (end 2.3 2.055) (layer "Dwgs.User") (width 0.01) (tstamp c370b18c-9474-40f5-842d-bcd0ad33b9f8))
  (fp_line (start 1.1 2.245) (end 1.1 2.385) (layer "Dwgs.User") (width 0.01) (tstamp c3ca9d1f-be64-45f1-b5bd-85ba217acf65))
  (fp_line (start -2.125 2.385) (end -2.2 2.385) (layer "Dwgs.User") (width 0.01) (tstamp c437afff-e616-408d-94ed-1e48516da712))
  (fp_line (start 2.4 -1.55) (end 2.4 -1.475) (layer "Dwgs.User") (width 0.01) (tstamp c45ba313-d4c8-4b5d-825c-126476f2267b))
  (fp_line (start 2.475 -1.075) (end 2.4 -1.075) (layer "Dwgs.User") (width 0.01) (tstamp c4bfc7d0-b043-4c5e-83fa-e8ab1ed505ea))
  (fp_line (start -1.1 2.245) (end -1.025 2.245) (layer "Dwgs.User") (width 0.01) (tstamp c56b4137-3cc9-468f-b098-736d58eb85ba))
  (fp_line (start -0.9 2.245) (end -0.9 2.385) (layer "Dwgs.User") (width 0.01) (tstamp c7b11d63-cf99-476a-ab26-48c185cd3952))
  (fp_line (start -2.4 -1.175) (end -2.475 -1.175) (layer "Dwgs.User") (width 0.01) (tstamp c8bd5fc7-65f6-4371-b72c-780810f53f41))
  (fp_line (start 0.175 2.245) (end 0.175 2.385) (layer "Dwgs.User") (width 0.01) (tstamp c9713e19-3a1d-4096-b98a-593b979e6137))
  (fp_line (start -0.325 2.245) (end -0.325 2.385) (layer "Dwgs.User") (width 0.01) (tstamp ca751a3e-24c7-450f-917f-3d033847cd3d))
  (fp_line (start -0.3 2.245) (end -0.225 2.245) (layer "Dwgs.User") (width 0.01) (tstamp caad6072-2298-41a7-bf2d-1adaf40e2c56))
  (fp_line (start 0.4 2.245) (end 0.475 2.245) (layer "Dwgs.User") (width 0.01) (tstamp cb08607f-320c-4c73-ae66-82bceafbb89c))
  (fp_line (start 1.075 2.385) (end 1 2.385) (layer "Dwgs.User") (width 0.01) (tstamp cc181fb4-2482-4dce-afdf-951055ab5406))
  (fp_line (start -0.125 2.245) (end -0.125 2.385) (layer "Dwgs.User") (width 0.01) (tstamp cf3f237c-690d-4d8c-bddd-c579d577663d))
  (fp_line (start 1.075 2.245) (end 1.075 2.385) (layer "Dwgs.User") (width 0.01) (tstamp cf85b46c-5d73-411c-9fb8-a4ea369e58d5))
  (fp_line (start 1.8 2.245) (end 1.875 2.245) (layer "Dwgs.User") (width 0.01) (tstamp cf8741aa-353e-4eff-a451-c9dae72dda2b))
  (fp_line (start 0.875 2.385) (end 0.8 2.385) (layer "Dwgs.User") (width 0.01) (tstamp cf92ac0e-2c97-42e9-9e71-d2e94dd3521a))
  (fp_line (start 2.475 -1.75) (end 2.475 -1.675) (layer "Dwgs.User") (width 0.01) (tstamp d3874079-65e0-4279-b921-ecd78c204ae5))
  (fp_line (start 2.475 -1.175) (end 2.4 -1.175) (layer "Dwgs.User") (width 0.01) (tstamp d3957f3a-b74c-4815-a977-d6c4fcb62d23))
  (fp_line (start 2.4 -1.25) (end 2.4 -1.175) (layer "Dwgs.User") (width 0.01) (tstamp d3d7fa71-ae99-4d5a-b00b-69c97e626f51))
  (fp_line (start 2.475 -1.25) (end 2.475 -1.175) (layer "Dwgs.User") (width 0.01) (tstamp d4975bb4-e4cb-4a01-8e5b-1dbf5857808d))
  (fp_line (start -2.4 2.245) (end -2.4 2.385) (layer "Dwgs.User") (width 0.01) (tstamp d4a3ca5c-0e26-4001-8c43-4da3b09f8a80))
  (fp_line (start -1.525 2.245) (end -1.525 2.385) (layer "Dwgs.User") (width 0.01) (tstamp d4bdde42-721e-423c-811f-d1ff2835b0fc))
  (fp_line (start -2.475 -1.45) (end -2.475 -1.375) (layer "Dwgs.User") (width 0.01) (tstamp d523dc83-bff0-4eff-9ede-80b3776759e3))
  (fp_line (start -1.3 2.245) (end -1.3 2.385) (layer "Dwgs.User") (width 0.01) (tstamp d56295c7-01c5-48d7-9150-55c756211e0b))
  (fp_line (start 2.4 -0.55) (end 2.4 -0.475) (layer "Dwgs.User") (width 0.01) (tstamp d605c7e2-1f83-4847-823a-96341731e39b))
  (fp_line (start 1.675 2.385) (end 1.6 2.385) (layer "Dwgs.User") (width 0.01) (tstamp d7bc7d68-da7b-4de4-bdb3-a8810558c436))
  (fp_line (start 2.475 -1.875) (end 2.4 -1.875) (layer "Dwgs.User") (width 0.01) (tstamp d95b3ce6-85e6-4b96-89a5-c75cf8d4aa0d))
  (fp_line (start -0.825 2.245) (end -0.825 2.385) (layer "Dwgs.User") (width 0.01) (tstamp db794937-f4e3-4c53-9011-d8912eea27f3))
  (fp_line (start 2.4 -1.85) (end 2.4 -1.775) (layer "Dwgs.User") (width 0.01) (tstamp dc2c1b3f-09ee-4972-81ed-35cf1152841b))
  (fp_line (start 2.4 -0.85) (end 2.4 -0.775) (layer "Dwgs.User") (width 0.01) (tstamp dc520add-05c3-47c4-b2d9-49455b8150db))
  (fp_line (start -2.4 -2.25) (end -2.4 -2.175) (layer "Dwgs.User") (width 0.01) (tstamp dc8bd187-287e-4563-bdc1-e2cb83111dd3))
  (fp_line (start -2.475 -1.95) (end -2.4 -1.95) (layer "Dwgs.User") (width 0.01) (tstamp df524f15-938a-4ea3-ba24-74d711aa10d9))
  (fp_line (start 0.3 2.245) (end 0.3 2.385) (layer "Dwgs.User") (width 0.01) (tstamp dfaf15b7-b97c-4172-9839-eb6f69663d55))
  (fp_line (start 2.375 2.245) (end 2.375 2.385) (layer "Dwgs.User") (width 0.01) (tstamp dfb877d1-b62e-4925-a778-8a7bfc9b7753))
  (fp_line (start -2.4 -0.775) (end -2.475 -0.775) (layer "Dwgs.User") (width 0.01) (tstamp dfca1d98-5798-475a-9862-c7f5cd154921))
  (fp_line (start 2.4 -0.75) (end 2.4 -0.675) (layer "Dwgs.User") (width 0.01) (tstamp e02bf644-a9f1-4418-a834-4053ba901937))
  (fp_line (start 0.975 2.245) (end 0.975 2.385) (layer "Dwgs.User") (width 0.01) (tstamp e0e7b755-ec4c-4a08-8b75-f6cbd83b004e))
  (fp_line (start -2.4 -1.75) (end -2.4 -1.675) (layer "Dwgs.User") (width 0.01) (tstamp e1365530-86a2-4efa-9dd8-038d01ac596d))
  (fp_line (start 0.275 2.385) (end 0.2 2.385) (layer "Dwgs.User") (width 0.01) (tstamp e179c773-6029-47e5-a850-17121ed9b82e))
  (fp_line (start 2.475 -1.675) (end 2.4 -1.675) (layer "Dwgs.User") (width 0.01) (tstamp e18cc20b-835a-4cc0-9147-25c1d3450b7a))
  (fp_line (start 2.475 -1.35) (end 2.475 -1.275) (layer "Dwgs.User") (width 0.01) (tstamp e49c3980-f2c8-48b2-b1eb-71d63c736aef))
  (fp_line (start 0.675 2.245) (end 0.675 2.385) (layer "Dwgs.User") (width 0.01) (tstamp e4cea57d-46c4-4465-8e84-8117409ab262))
  (fp_line (start -2.475 -1.65) (end -2.475 -1.575) (layer "Dwgs.User") (width 0.01) (tstamp e508894f-f854-40c5-84be-912251c3a33d))
  (fp_line (start 1.4 2.245) (end 1.4 2.385) (layer "Dwgs.User") (width 0.01) (tstamp e59eb148-0b5e-4be1-abb9-ee74adb73d46))
  (fp_line (start 2.4 -1.95) (end 2.475 -1.95) (layer "Dwgs.User") (width 0.01) (tstamp e5cf6ee7-98f7-4142-85f7-1c53d71d155e))
  (fp_line (start -2.4 -0.975) (end -2.475 -0.975) (layer "Dwgs.User") (width 0.01) (tstamp e6506f46-ddd4-4feb-b341-bdf7b86853f5))
  (fp_line (start 1 2.245) (end 1 2.385) (layer "Dwgs.User") (width 0.01) (tstamp e6554c17-08d3-4428-b6f6-c5dd2cdb18a7))
  (fp_line (start 2.175 2.385) (end 2.1 2.385) (layer "Dwgs.User") (width 0.01) (tstamp e76b8848-db0a-4e46-95be-4cf80be5bb85))
  (fp_line (start -0.8 2.245) (end -0.725 2.245) (layer "Dwgs.User") (width 0.01) (tstamp e77d0d8a-794e-433b-a14e-ad8f005278a3))
  (fp_line (start 0.2 2.245) (end 0.275 2.245) (layer "Dwgs.User") (width 0.01) (tstamp e826bad6-ff6d-497a-8c67-8352deb171d9))
  (fp_line (start -1.625 2.245) (end -1.625 2.385) (layer "Dwgs.User") (width 0.01) (tstamp e82a3681-d206-4e73-98f2-9a3939b9a0c5))
  (fp_line (start -0.425 2.245) (end -0.425 2.385) (layer "Dwgs.User") (width 0.01) (tstamp e879cd4c-25c3-472e-b800-23326a7f3cb4))
  (fp_line (start 2.4 -1.95) (end 2.4 -1.875) (layer "Dwgs.User") (width 0.01) (tstamp e8ae73bf-1db0-4e65-84ee-24e8427225ae))
  (fp_line (start -2.225 2.385) (end -2.3 2.385) (layer "Dwgs.User") (width 0.01) (tstamp eb3bf815-f1b8-4cb7-afd4-a3b584573f62))
  (fp_line (start -2.475 -2.25) (end -2.4 -2.25) (layer "Dwgs.User") (width 0.01) (tstamp eb961c09-8fab-416d-9269-aa31ba49c429))
  (fp_line (start 2.075 2.245) (end 2.075 2.385) (layer "Dwgs.User") (width 0.01) (tstamp ed6a9525-1935-4e40-8a9f-1df36c5b974f))
  (fp_line (start -0.425 2.385) (end -0.5 2.385) (layer "Dwgs.User") (width 0.01) (tstamp edb1ccf7-fa0e-4cb2-9323-51d2100f0301))
  (fp_line (start 2.4 -1.35) (end 2.4 -1.275) (layer "Dwgs.User") (width 0.01) (tstamp eeb4b799-58b0-4168-abc8-a1b8f9815537))
  (fp_line (start 2.4 -1.75) (end 2.4 -1.675) (layer "Dwgs.User") (width 0.01) (tstamp eeb53921-380f-4736-afbd-991c9451f5fd))
  (fp_line (start -1.7 2.245) (end -1.7 2.385) (layer "Dwgs.User") (width 0.01) (tstamp eebe064e-8a8a-44f1-9fe1-8a21cbb8a612))
  (fp_line (start -0.325 2.385) (end -0.4 2.385) (layer "Dwgs.User") (width 0.01) (tstamp f13604b1-2527-4593-9d69-1a7a153ebe1b))
  (fp_line (start 2.4 -1.05) (end 2.4 -0.975) (layer "Dwgs.User") (width 0.01) (tstamp f17442cf-7661-4c38-a7b5-7ae63eaca691))
  (fp_line (start -1.725 2.385) (end -1.8 2.385) (layer "Dwgs.User") (width 0.01) (tstamp f5093abe-06e4-451f-ba32-2ebdbfb112f7))
  (fp_line (start 0.9 2.245) (end 0.975 2.245) (layer "Dwgs.User") (width 0.01) (tstamp f56d8a51-f352-4fb3-bcfe-4566bec4d063))
  (fp_line (start -2.475 -1.05) (end -2.475 -0.975) (layer "Dwgs.User") (width 0.01) (tstamp f59d1941-7991-4617-99bc-3d6268039288))
  (fp_line (start -2.1 2.245) (end -2.1 2.385) (layer "Dwgs.User") (width 0.01) (tstamp f5e52302-59c3-421f-8dd8-1101df457ac5))
  (fp_line (start -2.475 -1.85) (end -2.475 -1.775) (layer "Dwgs.User") (width 0.01) (tstamp f72da3d6-7537-48b8-b238-a616085bc60c))
  (fp_line (start -2.475 -1.25) (end -2.475 -1.175) (layer "Dwgs.User") (width 0.01) (tstamp f9cc82c4-5bf9-4059-9aff-343d0e0caeed))
  (fp_line (start 0.875 2.245) (end 0.875 2.385) (layer "Dwgs.User") (width 0.01) (tstamp fa225b94-2860-4641-b9a8-d4778f0e101e))
  (fp_line (start -2.4 -1.05) (end -2.4 -0.975) (layer "Dwgs.User") (width 0.01) (tstamp fa8ee511-dfc1-4599-8593-157025129b1a))
  (fp_line (start 2.475 -0.775) (end 2.4 -0.775) (layer "Dwgs.User") (width 0.01) (tstamp fae21df2-2e1a-406d-91f8-4280d9f7a5bf))
  (fp_line (start -2.4 -1.275) (end -2.475 -1.275) (layer "Dwgs.User") (width 0.01) (tstamp fbf4e0af-0ea1-4824-ba9b-355eec8474fa))
  (fp_line (start -2.4 -1.375) (end -2.475 -1.375) (layer "Dwgs.User") (width 0.01) (tstamp fe0811de-0428-4897-a62e-25a4b873cf32))
  (fp_line (start 2.4 -1.25) (end 2.475 -1.25) (layer "Dwgs.User") (width 0.01) (tstamp febd3690-ad2f-41fd-8664-cabae0634198))
  (fp_line (start -1.4 2.245) (end -1.325 2.245) (layer "Dwgs.User") (width 0.01) (tstamp fee83f8d-2f03-4b65-b4cd-54672a719687))
  (fp_line (start -2.4 -0.875) (end -2.475 -0.875) (layer "Dwgs.User") (width 0.01) (tstamp ff21675a-bc3f-4e84-af59-619afbf3fc35))
  (fp_line (start 2.4 -1.15) (end 2.475 -1.15) (layer "Dwgs.User") (width 0.01) (tstamp ffdeba35-5682-4f5f-98ea-47efd1d8f1f5))
  (fp_line (start -2.7 -4.2) (end -2.2 -4.2) (layer "Cmts.User") (width 0.1) (tstamp 068bce3d-14ec-4f87-8325-007634f2f97e))
  (fp_line (start 4.85 5.4) (end 5.35 5.4) (layer "Cmts.User") (width 0.1) (tstamp 16b4f030-b340-4184-afcd-9a1ed363ea26))
  (fp_line (start 2.5 -2.95) (end 3 -2.95) (layer "Cmts.User") (width 0.1) (tstamp 1829af39-ad9f-4557-a645-8c0b3627f4f9))
  (fp_line (start -2.5 -2.95) (end -3 -2.95) (layer "Cmts.User") (width 0.1) (tstamp 199f3cea-9e18-47d3-836e-2f467612e67a))
  (fp_line (start -2.3876 2.286) (end -6.7056 8.2296) (layer "Cmts.User") (width 0.12) (tstamp 1c32c7a5-a28f-4ebc-ab4f-6450a9ffc200))
  (fp_line (start 2.5 2.92) (end 3 2.92) (layer "Cmts.User") (width 0.1) (tstamp 1c539d6e-ae2c-4913-af47-a2680eb775c5))
  (fp_line (start -3 2.92) (end -2.5 2.92) (layer "Cmts.User") (width 0.1) (tstamp 21869fe2-19ae-4dec-b86d-5ea807d821f3))
  (fp_line (start -5.3 5.25) (end -4.8 5.25) (layer "Cmts.User") (width 0.1) (tstamp 26be4af7-31da-40bd-bf01-3dabff16494e))
  (fp_line (start 3 -2.95) (end 3 -2.45) (layer "Cmts.User") (width 0.1) (tstamp 280d7947-5ca5-429d-b524-41a781b48e69))
  (fp_line (start 6.5 1.2) (end 7 1.2) (layer "Cmts.User") (width 0.1) (tstamp 2b2fb399-8de4-45ff-ab21-ea7eda374ecf))
  (fp_line (start 6.7564 8.2804) (end 2.3368 2.3368) (layer "Cmts.User") (width 0.12) (tstamp 2e83cd5e-b786-4aad-bf12-b527f6589f31))
  (fp_line (start 2.3368 2.286) (end 5.9436 6.4516) (layer "Cmts.User") (width 0.12) (tstamp 423aa436-872c-4e2e-933d-e07216090682))
  (fp_line (start -2.3368 2.286) (end -6.0452 6.35) (layer "Cmts.User") (width 0.12) (tstamp 44cc100a-0bc6-4944-9506-917570cf8bab))
  (fp_line (start -5.05 5.5) (end -5.05 5) (layer "Cmts.User") (width 0.1) (tstamp 583964df-4519-43bd-9edb-0efbab31baa4))
  (fp_line (start -0.0508 2.286) (end -0.0508 7.7216) (layer "Cmts.User") (width 0.12) (tstamp 5abb450e-deac-4f8d-8ab6-9a12fbedcab4))
  (fp_line (start -6.9 0.45) (end -6.4 0.45) (layer "Cmts.User") (width 0.1) (tstamp 927a42d3-2dd4-4b07-a257-6ff2fd97f62f))
  (fp_line (start -3 2.42) (end -3 2.92) (layer "Cmts.User") (width 0.1) (tstamp a81b7d96-986c-47f0-8f1e-43d6914fc149))
  (fp_line (start -6.65 0.7) (end -6.65 0.2) (layer "Cmts.User") (width 0.1) (tstamp ad99af30-9e36-4f05-9857-2d6a024b7d3f))
  (fp_line (start 2.7 -4.2) (end 2.2 -4.2) (layer "Cmts.User") (width 0.1) (tstamp b3749a2d-c9ad-4f1d-b1d0-a62698c287cc))
  (fp_line (start 3 2.42) (end 3 2.92) (layer "Cmts.User") (width 0.1) (tstamp bd796c09-15b1-4070-afd5-0808d62ce4f9))
  (fp_line (start 5.1 5.65) (end 5.1 5.15) (layer "Cmts.User") (width 0.1) (tstamp c8ca2060-edf7-4bde-8a95-fb686c0df5f3))
  (fp_line (start 6.75 1.45) (end 6.75 0.95) (layer "Cmts.User") (width 0.1) (tstamp e6fa378c-7dab-429f-904b-47520efd7944))
  (fp_line (start -3 -2.95) (end -3 -2.45) (layer "Cmts.User") (width 0.1) (tstamp e8780477-e784-493f-8f13-540f735a44b2))
  (pad "1" smd rect (at -2.9464 3.388) (locked) (size 0.15 0.5) (layers "F.Cu" "F.Paste" "F.Mask") (tstamp 762e61bc-9c23-477b-96a9-25a0e6c526ee))
  (pad "2" smd rect (at -2.8964 5.078) (locked) (size 0.15 0.5) (layers "F.Cu" "F.Paste" "F.Mask") (tstamp 15775135-25a5-451f-84b3-db1ad2ee4082))
  (pad "3" smd rect (at -3.1564 6.6648) (locked) (size 0.15 0.5) (layers "F.Cu" "F.Paste" "F.Mask") (tstamp aeba344d-d5a0-4bf4-8a7c-176121a5caa9))
  (pad "4" smd rect (at -2.37744 3.388) (locked) (size 0.15 0.5) (layers "F.Cu" "F.Paste" "F.Mask") (tstamp 2a35b851-9142-441a-a1b5-75940a90af3e))
  (pad "5" smd rect (at -2.5964 5.078) (locked) (size 0.15 0.5) (layers "F.Cu" "F.Paste" "F.Mask") (tstamp 84c889ae-dd03-4c9b-8459-b24fecff98b3))
  (pad "6" smd rect (at -2.8564 6.6648) (locked) (size 0.15 0.5) (layers "F.Cu" "F.Paste" "F.Mask") (tstamp afc317f5-b64d-4a2d-9197-2b340f0ba598))
  (pad "7" smd rect (at -2.01168 3.388) (locked) (size 0.15 0.5) (layers "F.Cu" "F.Paste" "F.Mask") (tstamp e640b6e7-997d-4019-bf71-80470f57eef6))
  (pad "8" smd rect (at -2.2964 5.078) (locked) (size 0.15 0.5) (layers "F.Cu" "F.Paste" "F.Mask") (tstamp b665f275-141a-4ef6-b374-e8219c0dbebd))
  (pad "9" smd rect (at -2.1564 6.6648) (locked) (size 0.15 0.5) (layers "F.Cu" "F.Paste" "F.Mask") (tstamp fa07aab3-7083-47f0-9803-3190488520a8))
  (pad "10" smd rect (at -1.64592 3.388) (locked) (size 0.15 0.5) (layers "F.Cu" "F.Paste" "F.Mask") (tstamp 62b97bd2-829f-4a1b-a38f-f6a2ecf646c6))
  (pad "11" smd rect (at -1.9964 5.078) (locked) (size 0.15 0.5) (layers "F.Cu" "F.Paste" "F.Mask") (tstamp 3859cc81-f3d9-41a8-93f3-402ae9310609))
  (pad "12" smd rect (at -1.8564 6.6648) (locked) (size 0.15 0.5) (layers "F.Cu" "F.Paste" "F.Mask") (tstamp bc55484e-bec6-4ffe-929c-9b428b2eddef))
  (pad "13" smd rect (at -1.6064 6.6648) (locked) (size 0.15 0.5) (layers "F.Cu" "F.Paste" "F.Mask") (tstamp e771371b-3299-4770-8755-d17dce428708))
  (pad "14" smd rect (at -1.6964 5.078) (locked) (size 0.15 0.5) (layers "F.Cu" "F.Paste" "F.Mask") (tstamp e54d0aff-a255-40d8-85be-4fd76728fc04))
  (pad "15" smd rect (at -1.4464 5.078) (locked) (size 0.15 0.5) (layers "F.Cu" "F.Paste" "F.Mask") (tstamp f5f46e6c-9912-44f2-a540-d41872bc4d75))
  (pad "16" smd rect (at -1.28804 3.388) (locked) (size 0.15 0.5) (layers "F.Cu" "F.Paste" "F.Mask") (tstamp cbbcbcde-7103-4d87-b4e2-fb7278faa556))
  (pad "17" smd rect (at -1.03804 3.388) (locked) (size 0.15 0.5) (layers "F.Cu" "F.Paste" "F.Mask") (tstamp e249e4f2-74f0-4fad-a82b-60538988e53a))
  (pad "18" smd rect (at -1.2564 6.6648) (locked) (size 0.15 0.5) (layers "F.Cu" "F.Paste" "F.Mask") (tstamp 9e8c84be-1844-4918-91db-62220ad11ac1))
  (pad "19" smd rect (at -0.67056 3.388) (locked) (size 0.15 0.5) (layers "F.Cu" "F.Paste" "F.Mask") (tstamp b6afdbe5-94c9-4135-a6a5-c931ee8750ce))
  (pad "20" smd rect (at -1.0964 5.078) (locked) (size 0.15 0.5) (layers "F.Cu" "F.Paste" "F.Mask") (tstamp e63b8395-6dbf-4b8a-9daf-12cfb6f29a3e))
  (pad "21" smd rect (at -0.9564 6.6648) (locked) (size 0.15 0.5) (layers "F.Cu" "F.Paste" "F.Mask") (tstamp 7e61c3ab-61d0-4fcc-b253-c418804db11b))
  (pad "22" smd rect (at -0.3048 3.388) (locked) (size 0.15 0.5) (layers "F.Cu" "F.Paste" "F.Mask") (tstamp 4cd4ec7b-6009-4b8b-b410-00794ac4cec4))
  (pad "23" smd rect (at -0.7964 5.078) (locked) (size 0.15 0.5) (layers "F.Cu" "F.Paste" "F.Mask") (tstamp 0b6c7ccf-b67b-44a6-854a-b348d41b2d90))
  (pad "24" smd rect (at -0.6564 6.6648) (locked) (size 0.15 0.5) (layers "F.Cu" "F.Paste" "F.Mask") (tstamp cd4cd127-698d-46ec-80a1-8325acfeeed2))
  (pad "25" smd rect (at 0.118533 3.388) (locked) (size 0.15 0.5) (layers "F.Cu" "F.Paste" "F.Mask") (tstamp 30cd9165-1dbe-46b8-bcea-06c801a10e2b))
  (pad "26" smd rect (at 0.9236 5.078) (locked) (size 0.15 0.5) (layers "F.Cu" "F.Paste" "F.Mask") (tstamp 3d1562ca-e8b1-4975-acd8-41f381aa5b7e))
  (pad "27" smd rect (at 1.5536 6.6548) (locked) (size 0.15 0.5) (layers "F.Cu" "F.Paste" "F.Mask") (tstamp dc3068ba-b020-48ab-93b3-2314bceec552))
  (pad "28" smd rect (at 0.541866 3.388) (locked) (size 0.15 0.5) (layers "F.Cu" "F.Paste" "F.Mask") (tstamp 11cd9dd3-0201-4705-aec9-56c765fe1200))
  (pad "29" smd rect (at 1.2236 5.078) (locked) (size 0.15 0.5) (layers "F.Cu" "F.Paste" "F.Mask") (tstamp 44227483-3248-47fb-93a9-5b174f4e0f29))
  (pad "30" smd rect (at 1.4736 5.078) (locked) (size 0.15 0.5) (layers "F.Cu" "F.Paste" "F.Mask") (tstamp 15a3ccf0-289e-4026-a1a9-6a6139b5d8fd))
  (pad "31" smd rect (at 0.9398 3.388) (locked) (size 0.15 0.5) (layers "F.Cu" "F.Paste" "F.Mask") (tstamp c5dd043f-e5ae-4f9a-954c-991a3bdc72eb))
  (pad "32" smd rect (at 1.8536 6.6548) (locked) (size 0.15 0.5) (layers "F.Cu" "F.Paste" "F.Mask") (tstamp 90c606ab-8de5-4df2-bd6c-c4e7a8b536f1))
  (pad "33" smd rect (at 2.1536 6.6548) (locked) (size 0.15 0.5) (layers "F.Cu" "F.Paste" "F.Mask") (tstamp 3e75349d-ea62-4aaf-8905-f500156379f9))
  (pad "34" smd rect (at 1.25476 3.388) (locked) (size 0.15 0.5) (layers "F.Cu" "F.Paste" "F.Mask") (tstamp e8f0eb96-db81-4777-b362-520da95c2742))
  (pad "35" smd rect (at 1.8236 5.078) (locked) (size 0.15 0.5) (layers "F.Cu" "F.Paste" "F.Mask") (tstamp c4c90e70-82b1-4065-9280-29c950939887))
  (pad "36" smd rect (at 2.4536 6.6548) (locked) (size 0.15 0.5) (layers "F.Cu" "F.Paste" "F.Mask") (tstamp 91ac35a1-2bbc-4f8f-b54a-d1de6ccb8503))
  (pad "37" smd rect (at 1.64592 3.388) (locked) (size 0.15 0.5) (layers "F.Cu" "F.Paste" "F.Mask") (tstamp 768152d6-31c8-40ef-8207-29a746d30716))
  (pad "38" smd rect (at 2.1236 5.078) (locked) (size 0.15 0.5) (layers "F.Cu" "F.Paste" "F.Mask") (tstamp 44e008d5-0ff7-406e-8c43-2b16cd88dcc8))
  (pad "39" smd rect (at 2.7536 6.6548) (locked) (size 0.15 0.5) (layers "F.Cu" "F.Paste" "F.Mask") (tstamp b8108819-58d7-4861-b9e9-449f6c10bb1c))
  (pad "40" smd rect (at 2.032 3.388) (locked) (size 0.15 0.5) (layers "F.Cu" "F.Paste" "F.Mask") (tstamp 2651321b-4671-4624-a9ab-4862aa7d2b76))
  (pad "41" smd rect (at 2.4236 5.078) (locked) (size 0.15 0.5) (layers "F.Cu" "F.Paste" "F.Mask") (tstamp 617fb9d2-8550-4828-8b9f-21b9efb41f48))
  (pad "42" smd rect (at 3.0536 6.6548) (locked) (size 0.15 0.5) (layers "F.Cu" "F.Paste" "F.Mask") (tstamp c72c5506-f9ee-4a02-be34-6f19ce98015b))
  (pad "43" smd rect (at 2.3368 3.388) (locked) (size 0.15 0.5) (layers "F.Cu" "F.Paste" "F.Mask") (tstamp 68096da9-d68d-4e36-b32d-67a0776542d0))
  (pad "44" smd rect (at 2.7236 5.078) (locked) (size 0.15 0.5) (layers "F.Cu" "F.Paste" "F.Mask") (tstamp 295ce28b-52c4-480e-83fb-0bc20bdeb486))
  (pad "45" smd rect (at 3.3536 6.6548) (locked) (size 0.15 0.5) (layers "F.Cu" "F.Paste" "F.Mask") (tstamp 92e7395e-8357-4eb1-8feb-b57e757d9f36))
  (pad "46" smd rect (at 2.7432 3.388) (locked) (size 0.15 0.5) (layers "F.Cu" "F.Paste" "F.Mask") (tstamp 466b6a30-ab35-40ee-a049-e9b1559d26ad))
  (pad "47" smd rect (at 3.0236 5.078) (locked) (size 0.15 0.5) (layers "F.Cu" "F.Paste" "F.Mask") (tstamp 287eb953-d289-4704-8748-3eb510ce2975))
  (pad "48" smd rect (at 3.6536 6.6548) (locked) (size 0.15 0.5) (layers "F.Cu" "F.Paste" "F.Mask") (tstamp 4b079fc5-e56e-4b21-bc01-178fac3ee1ef))
  (pad "49" smd rect (at -2.4384 -4.7752) (locked) (size 0.15 1) (layers "F.Cu" "F.Paste" "F.Mask") (tstamp b86d3bc4-cb81-456f-a1a4-f8f852faa340))
  (pad "50" smd rect (at -6.2172 -3.0984 90) (locked) (size 0.15 1) (layers "F.Cu" "F.Paste" "F.Mask") (tstamp a818d3e3-bf99-4c81-9ac2-bdf335258f23))
  (pad "51" smd rect (at -4.2672 -2.2224 90) (locked) (size 0.15 1) (layers "F.Cu" "F.Paste" "F.Mask") (tstamp b13864ef-40de-46ec-80fd-010911862f7a))
  (pad "52" smd rect (at -6.2484 -2.2988 90) (locked) (size 0.15 1) (layers "F.Cu" "F.Paste" "F.Mask") (tstamp db416366-8a96-4001-95f3-fda8d17d9a39))
  (pad "53" smd rect (at -4.2672 -1.816 90) (locked) (size 0.15 1) (layers "F.Cu" "F.Paste" "F.Mask") (tstamp 9bb1aaf2-bde6-4e1b-8604-2524199e74a8))
  (pad "54" smd rect (at -6.2172 -1.4984 90) (locked) (size 0.15 1) (layers "F.Cu" "F.Paste" "F.Mask") (tstamp 5a86a400-bbd6-4787-96be-886728095368))
  (pad "55" smd rect (at -4.2672 -1.4096 90) (locked) (size 0.15 1) (layers "F.Cu" "F.Paste" "F.Mask") (tstamp 6bc56500-90a2-4764-a1bd-80b004f704b4))
  (pad "56" smd rect (at -6.1976 -0.6984 90) (locked) (size 0.15 1) (layers "F.Cu" "F.Paste" "F.Mask") (tstamp a266974c-de10-41ff-af59-e3635672601c))
  (pad "57" smd rect (at -4.2672 -1.0032 90) (locked) (size 0.15 1) (layers "F.Cu" "F.Paste" "F.Mask") (tstamp cdd8cda4-5f3b-4e94-9c83-b531f4f50edb))
  (pad "58" smd rect (at -6.2172 0.1016 90) (locked) (size 0.15 1) (layers "F.Cu" "F.Paste" "F.Mask") (tstamp fd42ccd5-e37d-49a1-b94e-920e4f927510))
  (pad "59" smd rect (at -4.2672 -0.6096 90) (locked) (size 0.15 1) (layers "F.Cu" "F.Paste" "F.Mask") (tstamp 73ab2ec5-6f68-4da7-b4f2-9249f3446386))
  (pad "60" smd rect (at -6.2484 0.9016 90) (locked) (size 0.15 1) (layers "F.Cu" "F.Paste" "F.Mask") (tstamp 7dcf2db9-e27f-48f8-9096-1486d1fb6ca4))
  (pad "61" smd rect (at -4.2672 -0.1904 90) (locked) (size 0.15 1) (layers "F.Cu" "F.Paste" "F.Mask") (tstamp 6a1d4505-d728-4f51-bee9-098705fc0c4a))
  (pad "62" smd rect (at 2.4384 -4.7752) (locked) (size 0.15 1) (layers "F.Cu" "F.Paste" "F.Mask") (tstamp 9ff7ebb3-2190-40d2-8546-5af63a208afa))
  (pad "63" smd rect (at 5.2324 -2.4892 90) (locked) (size 0.15 1) (layers "F.Cu" "F.Paste" "F.Mask") (tstamp 5c73784a-fb7c-4474-bf76-cd292af4e9b9))
  (pad "64" smd rect (at 7.3152 -2.6044 90) (locked) (size 0.15 1) (layers "F.Cu" "F.Paste" "F.Mask") (tstamp bb521094-9da8-42d9-8460-5458401b8af8))
  (pad "65" smd rect (at 5.2324 -2.046515 90) (locked) (size 0.15 1) (layers "F.Cu" "F.Paste" "F.Mask") (tstamp ec1c2940-85b7-4426-8abe-e2ebfb56822c))
  (pad "66" smd rect (at 7.3152 -1.959134 90) (locked) (size 0.15 1) (layers "F.Cu" "F.Paste" "F.Mask") (tstamp 74854163-db64-4e7a-ab73-d26930d01187))
  (pad "67" smd rect (at 5.2324 -1.60383 90) (locked) (size 0.15 1) (layers "F.Cu" "F.Paste" "F.Mask") (tstamp 78c45475-32b4-48c0-979f-3e2404c84b88))
  (pad "68" smd rect (at 7.3152 -1.313868 90) (locked) (size 0.15 1) (layers "F.Cu" "F.Paste" "F.Mask") (tstamp f7c68379-27cc-440e-9cd6-c4291ebb3696))
  (pad "69" smd rect (at 5.2324 -1.161145 90) (locked) (size 0.15 1) (layers "F.Cu" "F.Paste" "F.Mask") (tstamp 7e7bcf52-e613-4ea5-845f-3611b78f96f8))
  (pad "70" smd rect (at 7.3152 -0.668602 90) (locked) (size 0.15 1) (layers "F.Cu" "F.Paste" "F.Mask") (tstamp 04df9758-e322-49eb-8dc4-40ec8ca97542))
  (pad "71" smd rect (at 5.2324 -0.71846 90) (locked) (size 0.15 1) (layers "F.Cu" "F.Paste" "F.Mask") (tstamp 963d01ad-17b3-468b-b909-2bbfcd8d261a))
  (pad "72" smd rect (at 7.3152 -0.023336 90) (locked) (size 0.15 1) (layers "F.Cu" "F.Paste" "F.Mask") (tstamp b82ebf6d-d372-4ef6-98d8-4fbcad87bc82))
  (pad "73" smd rect (at 5.2324 -0.275775 90) (locked) (size 0.15 1) (layers "F.Cu" "F.Paste" "F.Mask") (tstamp a9c514c0-4e09-47df-b0c5-2b65f953eb32))
  (pad "74" smd rect (at 7.3152 0.62193 90) (locked) (size 0.15 1) (layers "F.Cu" "F.Paste" "F.Mask") (tstamp c2814c90-8fb5-41ea-aaa7-4ed37c08dd8a))
  (pad "75" smd rect (at 5.2324 0.16691 90) (locked) (size 0.15 1) (layers "F.Cu" "F.Paste" "F.Mask") (tstamp c82384cc-97e6-436b-b6e0-f3fad1f0bf08))
  (pad "76" smd rect (at 7.3152 1.2672 90) (locked) (size 0.15 1) (layers "F.Cu" "F.Paste" "F.Mask") (tstamp 8d2e226e-cb81-4ac1-a555-4d77380eae61))
  (pad "77" smd rect (at 5.2324 0.6096 90) (locked) (size 0.15 1) (layers "F.Cu" "F.Paste" "F.Mask") (tstamp 2ad834cf-39bd-48ee-b695-9f339415082b))
  (pad "78" smd rect (at 5.2324 2.2324 90) (locked) (size 0.15 1) (layers "F.Cu" "F.Paste" "F.Mask") (tstamp 7c60d557-ef75-49ba-b1c3-e1ed7d1bd389))
  (group "" (id e1d421c1-293d-4ca8-8d24-0b7b34113122)
    (members
      cbbcbcde-7103-4d87-b4e2-fb7278faa556
      e249e4f2-74f0-4fad-a82b-60538988e53a
 )
  )
)
