(module ON_Semiconductor-523BF-10_2016-O-MFG (layer F.Cu) (tedit 5EF1EA0D)
(fp_line (start -0.9250000000 1.3250000000) (end -0.9250000000 -1.3250000000) (layer F.Fab) (width 0.15))
(fp_line (start -0.9250000000 -1.3250000000) (end 0.9250000000 -1.3250000000) (layer F.Fab) (width 0.15))
(fp_line (start 0.9250000000 -1.3250000000) (end 0.9250000000 1.3250000000) (layer F.Fab) (width 0.15))
(fp_line (start 0.9250000000 1.3250000000) (end -0.9250000000 1.3250000000) (layer F.Fab) (width 0.15))
(fp_text reference REF** (at -1.3250000000 -2.3750000000 0.0000000000) (layer F.SilkS) (effects (justify left) (font (size 1.0 1.0) (thickness 0.15))))
(fp_circle (center -1.6000000000 -0.6000000000) (end -1.4750000000 -0.6000000000) (layer F.SilkS) (width 0.25))
(fp_line (start 1.0750000000 -1.4750000000) (end 1.0750000000 -1.4750000000) (layer F.CrtYd) (width 0.15))
(fp_line (start 1.0750000000 -1.4750000000) (end -1.0750000000 -1.4750000000) (layer F.CrtYd) (width 0.15))
(fp_line (start -1.0750000000 -1.4750000000) (end -1.0750000000 1.4750000000) (layer F.CrtYd) (width 0.15))
(fp_line (start -1.0750000000 1.4750000000) (end 1.0750000000 1.4750000000) (layer F.CrtYd) (width 0.15))
(fp_line (start 1.0750000000 1.4750000000) (end 1.0750000000 -1.4750000000) (layer F.CrtYd) (width 0.15))
(fp_line (start 1.1250000000 -1.3000000000) (end 1.1250000000 -1.1000000000) (layer F.SilkS) (width 0.15))
(fp_line (start 1.1250000000 1.3000000000) (end 1.1250000000 1.1000000000) (layer F.SilkS) (width 0.15))
(fp_line (start -1.1250000000 -1.3000000000) (end -1.1250000000 -1.1000000000) (layer F.SilkS) (width 0.15))
(fp_line (start -1.1250000000 1.3000000000) (end -1.1250000000 1.1000000000) (layer F.SilkS) (width 0.15))
(pad 1 smd rect (at -0.7185000000 -0.6000000000 )(size 0.6630000000 0.2250000000)(layers F.Mask F.Paste F.Cu))
(pad 2 smd rect (at -0.7685000000 -0.2000000000 )(size 0.5630000000 0.2250000000)(layers F.Mask F.Paste F.Cu))
(pad 3 smd rect (at -0.7685000000 0.2000000000 )(size 0.5630000000 0.2250000000)(layers F.Mask F.Paste F.Cu))
(pad 4 smd rect (at -0.7685000000 0.6000000000 )(size 0.5630000000 0.2250000000)(layers F.Mask F.Paste F.Cu))
(pad 9 smd rect (at 0.7685000000 0.6000000000 )(size 0.5630000000 0.2250000000)(layers F.Mask F.Paste F.Cu))
(pad 10 smd rect (at 0.7685000000 0.2000000000 )(size 0.5630000000 0.2250000000)(layers F.Mask F.Paste F.Cu))
(pad 11 smd rect (at 0.7685000000 -0.2000000000 )(size 0.5630000000 0.2250000000)(layers F.Mask F.Paste F.Cu))
(pad 12 smd rect (at 0.7685000000 -0.6000000000 )(size 0.5630000000 0.2250000000)(layers F.Mask F.Paste F.Cu))
(pad 5 smd rect (at -0.6000000000 1.1685000000 )(size 0.2250000000 0.5630000000)(layers F.Mask F.Paste F.Cu))
(pad 6 smd rect (at -0.2000000000 1.1685000000 )(size 0.2250000000 0.5630000000)(layers F.Mask F.Paste F.Cu))
(pad 7 smd rect (at 0.2000000000 1.1685000000 )(size 0.2250000000 0.5630000000)(layers F.Mask F.Paste F.Cu))
(pad 8 smd rect (at 0.6000000000 1.1685000000 )(size 0.2250000000 0.5630000000)(layers F.Mask F.Paste F.Cu))
(pad 13 smd rect (at 0.6000000000 -1.1685000000 )(size 0.2250000000 0.5630000000)(layers F.Mask F.Paste F.Cu))
(pad 14 smd rect (at 0.2000000000 -1.1685000000 )(size 0.2250000000 0.5630000000)(layers F.Mask F.Paste F.Cu))
(pad 15 smd rect (at -0.2000000000 -1.1685000000 )(size 0.2250000000 0.5630000000)(layers F.Mask F.Paste F.Cu))
(pad 16 smd rect (at -0.6000000000 -1.1685000000 )(size 0.2250000000 0.5630000000)(layers F.Mask F.Paste F.Cu))
(model eec.models/ON_Semiconductor_-_FXL6408UMX.step
      (at (xyz 0.0000000000 0.0000000000 0.0000000000))
      (rotate (xyz 0.0000000000 0.0000000000 0.0000000000))
      (scale (xyz 1 1 1))
    )
)
